Predator-prey dynamics · Agents.jl Example Zoo
…
sheep(a) = a.type == :sheep
wolves(a) = a.type == :wolf
count_grass(model) = count(model.fully_grown)

count_grass (generic function with 1 method)
Run simulation:

model = initialize_model()
n = 500
adata = [(sheep, count), (wolves, count)]
mdata = [count_grass]
adf, mdf = run!(model, sheepwolf_step!, grass_step!, n; adata, mdata)

(501×3 DataFrame
 Row │ step   count_sheep  count_wolves
     │ Int64  Int64        Int64
─────┼──────────────────────────────────
   1 │     0          100            50
   2 │     1           92            51
   3 │     2           85            51
   4 │     3           79            51
   5 │     4           76            52
   6 │     5           55            54
   7 │     6           52            56
   8 │     7           46            56
  ⋮  │   ⋮         ⋮            ⋮
 495 │   494           28             0
 496 │   495           26             0
 497 │   496           25             0
 498 │   497           26             0
 499 │   498           24             0
 500 │   499           23             0
 501 │   500           22             0
                        486 rows omitted, 501×2 DataFrame
…
