Opinion spread · Agents.jl Example Zoo
…
agent_step! (generic function with 1 method)
Running the model
First, we create a stopping condition, which runs the model until all agents stabilize.

rununtil(model, s) = count(a -> a.stabilized, allagents(model)) == length(positions(model))

rununtil (generic function with 1 method)
Then we create our model, run it and collect some information

model = create_model(nopinions = 3, levels_per_opinion = 4)

agentdata, _ = run!(model, agent_step!, dummystep, rununtil, adata = [(:stabilized, count)])

(1073×2 DataFrame
  Row │ step   count_stabilized
      │ Int64  Int64
──────┼─────────────────────────
    1 │     0                 0
    2 │     1                78
    3 │     2                79
    4 │     3                85
    5 │     4                78
    6 │     5                79
    7 │     6                78
    8 │     7                79
  ⋮   │   ⋮           ⋮
 1067 │  1066                88
 1068 │  1067                88
 1069 │  1068                94
 1070 │  1069                93
 1071 │  1070                90
 1072 │  1071                91
 1073 │  1072               100
               1058 rows omitted, 0×0 DataFrame)
…
